<?xml version="1.0" encoding="utf-8"?>
<!-- Generator: Adobe Illustrator 16.0.5, SVG Export Plug-In . SVG Version: 6.00 Build 0)  -->
<!DOCTYPE svg PUBLIC "-//W3C//DTD SVG 1.1//EN" "http://www.w3.org/Graphics/SVG/1.1/DTD/svg11.dtd">
<svg version="1.1" id="Ebene_1" xmlns="http://www.w3.org/2000/svg" xmlns:xlink="http://www.w3.org/1999/xlink" x="0px" y="0px"
	 width="512px" height="512px" viewBox="0 0 512 512" enable-background="new 0 0 512 512" xml:space="preserve">
<ellipse fill="none" stroke="#1B1464" stroke-width="40" stroke-linecap="round" stroke-miterlimit="10" cx="220.612" cy="291.388" rx="141.553" ry="140.047"/>
<line fill="none" stroke="#1B1464" stroke-width="40" stroke-linecap="round" stroke-miterlimit="10" x1="323.012" y1="190.494" x2="425.412" y2="89.6"/>
<line fill="none" stroke="#1B1464" stroke-width="40" stroke-linecap="round" stroke-miterlimit="10" x1="437.459" y1="71.529" x2="341.082" y2="71.529"/>
<line fill="none" stroke="#1B1464" stroke-width="40" stroke-linecap="round" stroke-miterlimit="10" x1="444.235" y1="167.153" x2="444.235" y2="70.776"/>
<rect x="85.685" y="457.186" fill="none" width="229.948" height="30.721"/>
<text transform="matrix(1 0 0 1 85.7383 476.4033)" font-family="'ArialMT'" font-size="18.0706" letter-spacing="49">  </text>
</svg>
